2 0.747159 0.283854 0.113636 0.0850694 
2 0.196733 0.237847 0.0582386 0.0486111 
3 0.56179 0.28559 0.0440341 0.0607639 
2 0.350142 0.355903 0.129261 0.118056 
2 0.056108 0.280382 0.0610795 0.0572917 
3 0.266335 0.330729 0.046875 0.0885417 
2 0.585938 0.364583 0.140625 0.118056 
2 0.194602 0.287326 0.0852273 0.0677083 
3 0.951705 0.775174 0.0965909 0.303819 
2 0.0276989 0.256076 0.0497159 0.0538194 
